<?xml version="1.0" encoding="utf-8"?>
<!-- Generator: Adobe Illustrator 21.1.0, SVG Export Plug-In . SVG Version: 6.00 Build 0)  -->
<svg version="1.1" id="Capa_1" xmlns="http://www.w3.org/2000/svg" xmlns:xlink="http://www.w3.org/1999/xlink" x="0px" y="0px"
	 viewBox="0 0 50 60" style="enable-background:new 0 0 50 60;" xml:space="preserve">
<style type="text/css">
	.st0{fill:#FFFFFF;}
	.st1{fill:none;stroke:#FFFFFF;stroke-miterlimit:10;}
</style>
<g>
	<path class="st0" d="M24.9,1.5C12.3,1.5,2,11.8,2,24.5v28.7C2,56.4,4.6,59,7.8,59c5.8,0,10.7-4,12-9.4c1.6,0.5,3.3,0.8,5.1,0.8
		c1.8,0,3.5-0.3,5.1-0.8c1.3,5.4,6.2,9.4,12,9.4c3.2,0,5.8-2.6,5.8-5.8V24.5C47.9,11.8,37.6,1.5,24.9,1.5L24.9,1.5z M24.9,46
		c-6.6,0-11.9-5.4-11.9-11.9v-8.6c4.2-0.4,7.3-1.9,9.3-3.5c1.8,6.4,7.7,11.1,14.6,11.1v0.9C36.8,40.7,31.5,46,24.9,46L24.9,46z
		 M43.5,53.2c0,0.8-0.6,1.4-1.4,1.5c-4.2,0-7.8-3.1-8.3-7.1c4.4-2.9,7.3-7.9,7.3-13.5v-3.3c0-0.6-0.3-1.2-0.8-1.7
		c-0.5-0.4-1.1-0.6-1.8-0.5c-0.6,0.1-1.1,0.1-1.7,0.1c-6,0-10.9-4.9-10.9-10.9c0-0.2,0-0.5,0-0.8c0.1-1-0.5-2-1.5-2.3
		c-1-0.3-2.2,0.1-2.6,1.1c-0.2,0.3-3,5.3-11.2,5.3c-1.2,0-2.2,1-2.2,2.2l0,10.7c0,5.6,2.9,10.6,7.3,13.5c-0.5,4-4,7.1-8.3,7.1
		c-0.8,0-1.4-0.7-1.4-1.5V24.6c0-9.4,7-17.5,16.3-18.7c11.3-1.4,21,7.5,21,18.5V53.2z M43.5,53.2"/>
	<path class="st0" d="M26.7,35.6c-0.7,0-1.4,0.4-1.8,0.9c-0.5-0.6-1.3-1-2.1-0.9c-1,0.2-1.8,1.2-1.8,2.2V38c0,1.8,1.5,3.7,3.3,4
		c2.5,0.4,4.7-1.5,4.7-3.9v-0.2C28.9,36.6,27.9,35.6,26.7,35.6L26.7,35.6z M26.7,35.6"/>
</g>
<path class="st1" d="M15.4,29c0.1-0.2,1.3-1.9,3.5-2c2.4-0.1,3.6,1.9,3.7,2"/>
</svg>
